%YAML 1.1
%TAG !u! tag:unity3d.com,2011:
--- !u!687078895 &4343727234628468602
SpriteAtlas:
  m_ObjectHideFlags: 0
  m_CorrespondingSourceObject: {fileID: 0}
  m_PrefabInstance: {fileID: 0}
  m_PrefabAsset: {fileID: 0}
  m_Name: IconsAtlas
  m_EditorData:
    serializedVersion: 2
    textureSettings:
      serializedVersion: 2
      anisoLevel: 1
      compressionQuality: 50
      maxTextureSize: 2048
      textureCompression: 0
      filterMode: 1
      generateMipMaps: 0
      readable: 0
      crunchedCompression: 0
      sRGB: 1
    platformSettings:
    - serializedVersion: 3
      m_BuildTarget: Android
      m_MaxTextureSize: 2048
      m_ResizeAlgorithm: 0
      m_TextureFormat: 47
      m_TextureCompression: 1
      m_CompressionQuality: 50
      m_CrunchedCompression: 0
      m_AllowsAlphaSplitting: 0
      m_Overridden: 1
      m_AndroidETC2FallbackOverride: 0
      m_ForceMaximumCompressionQuality_BC6H_BC7: 0
    packingSettings:
      serializedVersion: 2
      padding: 4
      blockOffset: 1
      allowAlphaSplitting: 0
      enableRotation: 0
      enableTightPacking: 0
    variantMultiplier: 1
    packables:
    - {fileID: 102900000, guid: 52e2f8c60cb5ea142bef6cde46144085, type: 3}
    totalSpriteSurfaceArea: 230712
    bindAsDefault: 1
    storedHash:
      serializedVersion: 2
      Hash: 47871f6b03dd00956d348e53b4699096
  m_MasterAtlas: {fileID: 0}
  m_PackedSprites:
  - {fileID: 21300000, guid: 27c8bc708acf28240ad852e5c7673e27, type: 3}
  - {fileID: 21300000, guid: 338b8ee0e12cee84a83be520c0cd27b3, type: 3}
  - {fileID: 21300000, guid: 9fefd112d2d7ccc4da2168529912ad1b, type: 3}
  - {fileID: 21300000, guid: 60437723dff27f241a77d414983ca794, type: 3}
  - {fileID: 21300000, guid: 391bad649c181244bbcda48ff3322e6e, type: 3}
  - {fileID: 21300000, guid: a3510b362e0a60441ba93b35fc47f150, type: 3}
  - {fileID: 21300000, guid: bbb196860df5e2d428d8b727f81cdcff, type: 3}
  - {fileID: 21300000, guid: 6dfd0fc67d1b33f4e8297be24112a5c8, type: 3}
  - {fileID: 21300000, guid: 0cb88357840595e48a3c1e0723cbd4f8, type: 3}
  - {fileID: 21300000, guid: 231b778793b991547a37e65061187884, type: 3}
  - {fileID: 21300000, guid: 43f92fa8336dc4f4c91fd03c1c95b861, type: 3}
  - {fileID: 21300000, guid: 6272a6ca7d37b2e4eb4b31acd9273e54, type: 3}
  - {fileID: 21300000, guid: 38d6392b46623a242964eaf93238a215, type: 3}
  - {fileID: 21300000, guid: a0bac49ecfd6b1c43a6bfa0d56580a55, type: 3}
  - {fileID: 21300000, guid: 7cc922cfe1e5f2c429c4322f30adc16e, type: 3}
  m_PackedSpriteNamesToIndex:
  - 7
  - 1
  - 12
  - 2
  - 15
  - 9
  - 4
  - 8
  - 10
  - 3
  - 14
  - 13
  - 5
  - 11
  - 6
  m_Tag: IconsAtlas
  m_IsVariant: 0
